{
	"id": "9a0b1040-0394-4ead-a1d1-688f850a0625",
	"name": "asg_env",
	"values": [
		{
			"key": "TOKEN",
			"value": "eyJhbGciOiJIUzI1NiIsInR5cCI6IkpXVCJ9.eyJpZCI6IjY0YWFlNTQxNDgyOTg5MjhlZmRhZmU3MiIsImlhdCI6MTY4ODkyMTY1MiwiZXhwIjoxNjg5MDA4MDUyfQ.kBmNQbypXuZqo4JIFMES06zBtF5sDw4uw78aR_QUwU0",
			"type": "default",
			"enabled": true
		},
		{
			"key": "username",
			"value": "",
			"type": "any",
			"enabled": true
		},
		{
			"key": "email",
			"value": "",
			"type": "any",
			"enabled": true
		},
		{
			"key": "password",
			"value": "",
			"type": "any",
			"enabled": true
		},
		{
			"key": "roles",
			"value": "",
			"type": "any",
			"enabled": true
		},
		{
			"key": "uri_docker",
			"value": "https://greenbackend.localhost",
			"type": "default",
			"enabled": true
		},
		{
			"key": "uri_local",
			"value": "http://localhost:8000",
			"type": "default",
			"enabled": true
		}
	],
	"_postman_variable_scope": "environment",
	"_postman_exported_at": "2023-07-21T11:41:59.992Z",
	"_postman_exported_using": "Postman/10.16.0"
}